<?xml version="1.0" encoding="UTF-8" standalone="no"?>
<!-- Created with Inkscape (http://www.inkscape.org/) -->

<svg
   xmlns:dc="http://purl.org/dc/elements/1.1/"
   xmlns:cc="http://creativecommons.org/ns#"
   xmlns:rdf="http://www.w3.org/1999/02/22-rdf-syntax-ns#"
   xmlns:svg="http://www.w3.org/2000/svg"
   xmlns="http://www.w3.org/2000/svg"
   xmlns:sodipodi="http://sodipodi.sourceforge.net/DTD/sodipodi-0.dtd"
   xmlns:inkscape="http://www.inkscape.org/namespaces/inkscape"
   width="990"
   height="765"
   id="svg2"
   version="1.1"
   inkscape:version="0.91 r13725"
   sodipodi:docname="ProcessFlow.svg"
   inkscape:export-filename="C:\Projects\UPlan4\docs\graphics\ProcessFlow.png"
   inkscape:export-xdpi="90"
   inkscape:export-ydpi="90">
  <defs
     id="defs4">
    <marker
       inkscape:stockid="Arrow2Lend"
       orient="auto"
       refY="0.0"
       refX="0.0"
       id="Arrow2Lend"
       style="overflow:visible;">
      <path
         id="path3924"
         style="fill-rule:evenodd;stroke-width:0.62500000;stroke-linejoin:round;"
         d="M 8.7185878,4.0337352 L -2.2072895,0.016013256 L 8.7185884,-4.0017078 C 6.9730900,-1.6296469 6.9831476,1.6157441 8.7185878,4.0337352 z "
         transform="scale(1.1) rotate(180) translate(1,0)" />
    </marker>
    <marker
       inkscape:stockid="Arrow1Lend"
       orient="auto"
       refY="0.0"
       refX="0.0"
       id="Arrow1Lend"
       style="overflow:visible;">
      <path
         id="path3906"
         d="M 0.0,0.0 L 5.0,-5.0 L -12.5,0.0 L 5.0,5.0 L 0.0,0.0 z "
         style="fill-rule:evenodd;stroke:#000000;stroke-width:1.0pt;"
         transform="scale(0.8) rotate(180) translate(12.5,0)" />
    </marker>
  </defs>
  <sodipodi:namedview
     id="base"
     pagecolor="#ffffff"
     bordercolor="#666666"
     borderopacity="1.0"
     inkscape:pageopacity="0.0"
     inkscape:pageshadow="2"
     inkscape:zoom="0.6379085"
     inkscape:cx="16.09119"
     inkscape:cy="445.20492"
     inkscape:document-units="px"
     inkscape:current-layer="layer1"
     showgrid="false"
     units="in"
     inkscape:window-width="1920"
     inkscape:window-height="1137"
     inkscape:window-x="1912"
     inkscape:window-y="-8"
     inkscape:window-maximized="1" />
  <metadata
     id="metadata7">
    <rdf:RDF>
      <cc:Work
         rdf:about="">
        <dc:format>image/svg+xml</dc:format>
        <dc:type
           rdf:resource="http://purl.org/dc/dcmitype/StillImage" />
        <dc:title />
      </cc:Work>
    </rdf:RDF>
  </metadata>
  <g
     inkscape:label="Layer 1"
     inkscape:groupmode="layer"
     id="layer1"
     transform="translate(0,-287.362)">
    <path
       sodipodi:type="arc"
       style="fill:#f6cd97;fill-opacity:1;stroke:#000000;stroke-width:3;stroke-miterlimit:4;stroke-opacity:1;stroke-dasharray:none"
       id="path2985"
       sodipodi:cx="159.11372"
       sodipodi:cy="492.23361"
       sodipodi:rx="113.65266"
       sodipodi:ry="64.272537"
       d="M 272.76638,492.23361 A 113.65266,64.272537 0 0 1 159.11372,556.50615 113.65266,64.272537 0 0 1 45.461067,492.23361 113.65266,64.272537 0 0 1 159.11372,427.96107 113.65266,64.272537 0 0 1 272.76638,492.23361 Z"
       transform="translate(-18.811475,422.17757)" />
    <path
       transform="translate(303.33505,419.04232)"
       sodipodi:type="arc"
       style="fill:#f6cd97;fill-opacity:1;stroke:#000000;stroke-width:3;stroke-miterlimit:4;stroke-opacity:1;stroke-dasharray:none"
       id="path2985-1"
       sodipodi:cx="159.11372"
       sodipodi:cy="492.23361"
       sodipodi:rx="113.65266"
       sodipodi:ry="64.272537"
       d="M 272.76638,492.23361 A 113.65266,64.272537 0 0 1 159.11372,556.50615 113.65266,64.272537 0 0 1 45.461067,492.23361 113.65266,64.272537 0 0 1 159.11372,427.96107 113.65266,64.272537 0 0 1 272.76638,492.23361 Z" />
    <path
       transform="translate(676.42931,414.33946)"
       sodipodi:type="arc"
       style="fill:#f6cd97;fill-opacity:1;stroke:#000000;stroke-width:3;stroke-miterlimit:4;stroke-opacity:1;stroke-dasharray:none"
       id="path2985-7"
       sodipodi:cx="159.11372"
       sodipodi:cy="492.23361"
       sodipodi:rx="113.65266"
       sodipodi:ry="64.272537"
       d="M 272.76638,492.23361 A 113.65266,64.272537 0 0 1 159.11372,556.50615 113.65266,64.272537 0 0 1 45.461067,492.23361 113.65266,64.272537 0 0 1 159.11372,427.96107 113.65266,64.272537 0 0 1 272.76638,492.23361 Z" />
    <path
       transform="translate(493.01743,218.38658)"
       sodipodi:type="arc"
       style="fill:#f6cd97;fill-opacity:1;stroke:#000000;stroke-width:3;stroke-miterlimit:4;stroke-opacity:1;stroke-dasharray:none"
       id="path2985-1-4"
       sodipodi:cx="159.11372"
       sodipodi:cy="492.23361"
       sodipodi:rx="113.65266"
       sodipodi:ry="64.272537"
       d="M 272.76638,492.23361 A 113.65266,64.272537 0 0 1 159.11372,556.50615 113.65266,64.272537 0 0 1 45.461067,492.23361 113.65266,64.272537 0 0 1 159.11372,427.96107 113.65266,64.272537 0 0 1 272.76638,492.23361 Z" />
    <path
       transform="matrix(0.50274849,0,0,0.55973821,530.59496,235.2263)"
       sodipodi:type="arc"
       style="fill:#f6cd97;fill-opacity:1;stroke:#000000;stroke-width:3;stroke-miterlimit:4;stroke-opacity:1;stroke-dasharray:none"
       id="path2985-1-0"
       sodipodi:cx="159.11372"
       sodipodi:cy="492.23361"
       sodipodi:rx="113.65266"
       sodipodi:ry="64.272537"
       d="M 272.76638,492.23361 A 113.65266,64.272537 0 0 1 159.11372,556.50615 113.65266,64.272537 0 0 1 45.461067,492.23361 113.65266,64.272537 0 0 1 159.11372,427.96107 113.65266,64.272537 0 0 1 272.76638,492.23361 Z" />
    <path
       transform="matrix(0.50274849,0,0,0.55973821,648.95049,198.38718)"
       sodipodi:type="arc"
       style="fill:#f6cd97;fill-opacity:1;stroke:#000000;stroke-width:3;stroke-miterlimit:4;stroke-opacity:1;stroke-dasharray:none"
       id="path2985-1-0-4"
       sodipodi:cx="159.11372"
       sodipodi:cy="492.23361"
       sodipodi:rx="113.65266"
       sodipodi:ry="64.272537"
       d="M 272.76638,492.23361 A 113.65266,64.272537 0 0 1 159.11372,556.50615 113.65266,64.272537 0 0 1 45.461067,492.23361 113.65266,64.272537 0 0 1 159.11372,427.96107 113.65266,64.272537 0 0 1 272.76638,492.23361 Z" />
    <path
       transform="matrix(0.50274849,0,0,0.55973821,774.36033,184.27856)"
       sodipodi:type="arc"
       style="fill:#f6cd97;fill-opacity:1;stroke:#000000;stroke-width:3;stroke-miterlimit:4;stroke-opacity:1;stroke-dasharray:none"
       id="path2985-1-0-8"
       sodipodi:cx="159.11372"
       sodipodi:cy="492.23361"
       sodipodi:rx="113.65266"
       sodipodi:ry="64.272537"
       d="M 272.76638,492.23361 A 113.65266,64.272537 0 0 1 159.11372,556.50615 113.65266,64.272537 0 0 1 45.461067,492.23361 113.65266,64.272537 0 0 1 159.11372,427.96107 113.65266,64.272537 0 0 1 272.76638,492.23361 Z" />
    <path
       transform="translate(176.35758,-95.13801)"
       sodipodi:type="arc"
       style="fill:#f6cd97;fill-opacity:1;stroke:#000000;stroke-width:3;stroke-miterlimit:4;stroke-opacity:1;stroke-dasharray:none"
       id="path2985-1-4-8"
       sodipodi:cx="159.11372"
       sodipodi:cy="492.23361"
       sodipodi:rx="113.65266"
       sodipodi:ry="64.272537"
       d="M 272.76638,492.23361 A 113.65266,64.272537 0 0 1 159.11372,556.50615 113.65266,64.272537 0 0 1 45.461067,492.23361 113.65266,64.272537 0 0 1 159.11372,427.96107 113.65266,64.272537 0 0 1 272.76638,492.23361 Z" />
    <path
       transform="matrix(0.62575686,0,0,0.6065213,61.114857,279.60589)"
       sodipodi:type="arc"
       style="fill:#f6cd97;fill-opacity:1;stroke:#000000;stroke-width:3;stroke-miterlimit:4;stroke-opacity:1;stroke-dasharray:none"
       id="path2985-1-4-2"
       sodipodi:cx="159.11372"
       sodipodi:cy="492.23361"
       sodipodi:rx="113.65266"
       sodipodi:ry="64.272537"
       d="M 272.76638,492.23361 A 113.65266,64.272537 0 0 1 159.11372,556.50615 113.65266,64.272537 0 0 1 45.461067,492.23361 113.65266,64.272537 0 0 1 159.11372,427.96107 113.65266,64.272537 0 0 1 272.76638,492.23361 Z" />
    <path
       transform="translate(193.60144,194.87224)"
       sodipodi:type="arc"
       style="fill:#f6cd97;fill-opacity:1;stroke:#000000;stroke-width:3;stroke-miterlimit:4;stroke-opacity:1;stroke-dasharray:none"
       id="path2985-1-4-4"
       sodipodi:cx="159.11372"
       sodipodi:cy="492.23361"
       sodipodi:rx="113.65266"
       sodipodi:ry="64.272537"
       d="M 272.76638,492.23361 A 113.65266,64.272537 0 0 1 159.11372,556.50615 113.65266,64.272537 0 0 1 45.461067,492.23361 113.65266,64.272537 0 0 1 159.11372,427.96107 113.65266,64.272537 0 0 1 272.76638,492.23361 Z" />
    <path
       style="fill:none;stroke:#000000;stroke-width:1px;stroke-linecap:butt;stroke-linejoin:miter;stroke-opacity:1;marker-end:url(#Arrow1Lend)"
       d="m 249.25205,628.6168 c 97.19262,-1.56762 97.19262,-1.56762 97.19262,-1.56762"
       id="path3869"
       inkscape:connector-curvature="0"
       transform="translate(0,287.362)" />
    <path
       style="fill:none;stroke:#000000;stroke-width:1px;stroke-linecap:butt;stroke-linejoin:miter;stroke-opacity:1;marker-end:url(#Arrow1Lend)"
       d="m 576.88525,620.77869 142.65368,-1.56762"
       id="path3871"
       inkscape:connector-curvature="0"
       transform="translate(0,287.362)" />
    <path
       style="fill:none;stroke:#000000;stroke-width:1px;stroke-linecap:butt;stroke-linejoin:miter;stroke-opacity:1;marker-end:url(#Arrow1Lend)"
       d="m 536.12705,576.88525 c 0,0 87.78688,0 101.89549,-87.78689"
       id="path3875"
       inkscape:connector-curvature="0"
       transform="translate(0,287.362)" />
    <path
       style="fill:none;stroke:#000000;stroke-width:1px;stroke-linecap:butt;stroke-linejoin:miter;stroke-opacity:1;marker-end:url(#Arrow1Lend)"
       d="m 634.8873,355.85041 c 0,0 141.08606,-21.94672 217.89959,-148.92418"
       id="path3879"
       inkscape:connector-curvature="0"
       transform="translate(0,287.362)" />
    <path
       style="fill:none;stroke:#000000;stroke-width:1px;stroke-linecap:butt;stroke-linejoin:miter;stroke-opacity:1;marker-end:url(#Arrow1Lend)"
       d="m 578.45287,192.81762 c 0,0 -65.84017,-72.11065 -130.11271,-73.67828"
       id="path3881"
       inkscape:connector-curvature="0"
       transform="translate(0,287.362)" />
    <path
       style="fill:none;stroke:#000000;stroke-width:1.08172131000000000px;stroke-linecap:butt;stroke-linejoin:miter;stroke-opacity:1;marker-end:url(#Arrow1Lend)"
       d="m 713.22759,440.94819 c 0,0 -109.43523,-70.70833 -263.27894,-36.26068"
       id="path3883"
       inkscape:connector-curvature="0" />
    <path
       style="fill:none;stroke:#000000;stroke-width:1px;stroke-linecap:butt;stroke-linejoin:miter;stroke-opacity:1;marker-end:url(#Arrow1Lend)"
       d="m 851.21926,133.24795 c 0,0 -192.81762,-78.381147 -402.8791,-20.3791"
       id="path3885"
       inkscape:connector-curvature="0"
       transform="translate(0,287.362)" />
    <path
       style="fill:none;stroke:#000000;stroke-width:1px;stroke-linecap:butt;stroke-linejoin:miter;stroke-opacity:1;marker-end:url(#Arrow1Lend)"
       d="m 253.95492,152.05943 c 0,0 -67.40779,32.92008 -75.2459,101.89549"
       id="path3887"
       inkscape:connector-curvature="0"
       transform="translate(0,287.362)" />
    <path
       style="fill:none;stroke:#000000;stroke-width:1px;stroke-linecap:butt;stroke-linejoin:miter;stroke-opacity:1;marker-end:url(#Arrow1Lend)"
       d="m 197.52049,326.06557 c 0,0 18.81148,32.92009 53.29918,42.32582"
       id="path3889"
       inkscape:connector-curvature="0"
       transform="translate(0,287.362)" />
    <path
       style="fill:none;stroke:#000000;stroke-width:1px;stroke-linecap:butt;stroke-linejoin:miter;stroke-opacity:1;marker-end:url(#Arrow1Lend)"
       d="m 451.47541,654.18578 c 0,0 206.92623,-18.81148 393.47336,-161.46517"
       id="path3893"
       inkscape:connector-curvature="0" />
    <path
       style="fill:none;stroke:#000000;stroke-width:1px;stroke-linecap:butt;stroke-linejoin:miter;stroke-opacity:1;marker-end:url(#Arrow1Lend)"
       d="m 460.88115,421.69057 c 0,0 10.97336,23.51435 78.38115,7.83812"
       id="path3895"
       inkscape:connector-curvature="0"
       transform="translate(0,287.362)" />
    <path
       style="fill:none;stroke:#000000;stroke-width:1px;stroke-linecap:butt;stroke-linejoin:miter;stroke-opacity:1;marker-end:url(#Arrow1Lend)"
       d="m 368.39139,462.44877 c 0,0 -12.54098,61.1373 61.1373,94.05738"
       id="path3897"
       inkscape:connector-curvature="0"
       transform="translate(0,287.362)" />
    <path
       style="fill:none;stroke:#000000;stroke-width:1px;stroke-linecap:butt;stroke-linejoin:miter;stroke-opacity:1;marker-end:url(#Arrow2Lend)"
       d="m 443.6373,362.1209 c 0,0 97.19262,-21.94672 142.65368,-106.59836"
       id="path5817"
       inkscape:connector-curvature="0"
       transform="translate(0,287.362)" />
    <path
       style="fill:none;stroke:#000000;stroke-width:1px;stroke-linecap:butt;stroke-linejoin:miter;stroke-opacity:1;marker-end:url(#Arrow2Lend)"
       d="m 442.06968,646.34766 c 0,0 152.05942,-7.83811 282.17213,-139.51844"
       id="path6003"
       inkscape:connector-curvature="0" />
    <path
       style="fill:none;stroke:#000000;stroke-width:0.95580846px;stroke-linecap:butt;stroke-linejoin:miter;stroke-opacity:1;marker-end:url(#Arrow2Lend)"
       d="m 641.13569,641.66688 c 0,0 70.73581,-44.43382 84.88297,-131.71455"
       id="path6373"
       inkscape:connector-curvature="0" />
    <path
       style="fill:none;stroke:#000000;stroke-width:1px;stroke-linecap:butt;stroke-linejoin:miter;stroke-opacity:1;marker-end:url(#Arrow2Lend)"
       d="m 641.15779,357.41803 c 0,0 10.97336,-36.05533 -15.67623,-98.76024"
       id="path6559"
       inkscape:connector-curvature="0"
       transform="translate(0,287.362)" />
    <text
       xml:space="preserve"
       style="font-size:40px;font-style:normal;font-weight:normal;line-height:125%;letter-spacing:0px;word-spacing:0px;fill:#000000;fill-opacity:1;stroke:none;font-family:Sans"
       x="76.81353"
       y="930.0874"
       id="text6745"
       sodipodi:linespacing="125%"><tspan
         sodipodi:role="line"
         id="tspan6747"
         x="76.81353"
         y="930.0874">Setup</tspan></text>
    <text
       xml:space="preserve"
       style="font-size:40px;font-style:normal;font-weight:normal;line-height:125%;letter-spacing:0px;word-spacing:0px;fill:#000000;fill-opacity:1;stroke:none;font-family:Sans"
       x="365.25616"
       y="922.24927"
       id="text6749"
       sodipodi:linespacing="125%"><tspan
         sodipodi:role="line"
         id="tspan6751"
         x="365.25616"
         y="922.24927">TimeSteps</tspan></text>
    <text
       xml:space="preserve"
       style="font-size:40px;font-style:normal;font-weight:normal;line-height:125%;letter-spacing:0px;word-spacing:0px;fill:#000000;fill-opacity:1;stroke:none;font-family:Sans"
       x="562.77667"
       y="720.02594"
       id="text6753"
       sodipodi:linespacing="125%"><tspan
         sodipodi:role="line"
         id="tspan6755"
         x="562.77667"
         y="720.02594">Subareas</tspan></text>
    <text
       xml:space="preserve"
       style="font-size:40px;font-style:normal;font-weight:normal;line-height:125%;letter-spacing:0px;word-spacing:0px;fill:#000000;fill-opacity:1;stroke:none;font-family:Sans"
       x="769.70288"
       y="920.6817"
       id="text6757"
       sodipodi:linespacing="125%"><tspan
         sodipodi:role="line"
         id="tspan6759"
         x="769.70288"
         y="920.6817">Results</tspan></text>
    <text
       xml:space="preserve"
       style="font-size:40px;font-style:normal;font-weight:normal;line-height:125%;letter-spacing:0px;word-spacing:0px;fill:#000000;fill-opacity:1;stroke:none;font-family:Sans"
       x="268.06351"
       y="698.07922"
       id="text6761"
       sodipodi:linespacing="125%"><tspan
         sodipodi:role="line"
         id="tspan6763"
         x="268.06351"
         y="698.07922">Controller</tspan></text>
    <text
       xml:space="preserve"
       style="font-size:40px;font-style:normal;font-weight:normal;line-height:125%;letter-spacing:0px;word-spacing:0px;fill:#000000;fill-opacity:1;stroke:none;font-family:Sans"
       x="575.31763"
       y="524.07306"
       id="text6765"
       sodipodi:linespacing="125%"><tspan
         sodipodi:role="line"
         id="tspan6767"
         x="575.31763"
         y="524.07306">LU1</tspan></text>
    <text
       xml:space="preserve"
       style="font-size:40px;font-style:normal;font-weight:normal;line-height:125%;letter-spacing:0px;word-spacing:0px;fill:#000000;fill-opacity:1;stroke:none;font-family:Sans"
       x="689.73981"
       y="486.47241"
       id="text6765-5"
       sodipodi:linespacing="125%"><tspan
         sodipodi:role="line"
         id="tspan6767-5"
         x="689.73981"
         y="486.47241">LU2</tspan></text>
    <text
       xml:space="preserve"
       style="font-size:40px;font-style:normal;font-weight:normal;line-height:125%;letter-spacing:0px;word-spacing:0px;fill:#000000;fill-opacity:1;stroke:none;font-family:Sans"
       x="813.58209"
       y="475.49899"
       id="text6765-1"
       sodipodi:linespacing="125%"><tspan
         sodipodi:role="line"
         id="tspan6767-7"
         x="813.58209"
         y="475.49899">LU...</tspan></text>
    <text
       xml:space="preserve"
       style="font-size:40px;font-style:normal;font-weight:normal;line-height:125%;letter-spacing:0px;word-spacing:0px;fill:#000000;fill-opacity:1;stroke:none;font-family:Sans"
       x="264.92828"
       y="379.85175"
       id="text6799"
       sodipodi:linespacing="125%"><tspan
         sodipodi:role="line"
         id="tspan6801"
         x="264.92828"
         y="379.85175">Collect</tspan><tspan
         sodipodi:role="line"
         x="264.92828"
         y="429.85175"
         id="tspan6803">Process</tspan></text>
    <text
       xml:space="preserve"
       style="font-size:40px;font-style:normal;font-weight:normal;line-height:125%;letter-spacing:0px;word-spacing:0px;fill:#000000;fill-opacity:1;stroke:none;font-family:Sans"
       x="100.32786"
       y="591.48083"
       id="text6805"
       sodipodi:linespacing="125%"><tspan
         sodipodi:role="line"
         id="tspan6807"
         x="100.32786"
         y="591.48083">Redev.</tspan></text>
    <path
       sodipodi:type="arc"
       style="fill:none;fill-rule:evenodd;stroke:#1f4c61;stroke-width:4.35125736;stroke-linecap:butt;stroke-linejoin:miter;stroke-opacity:1;stroke-miterlimit:4;stroke-dasharray:none;marker-start:none"
       id="path6809"
       sodipodi:cx="869.24695"
       sodipodi:cy="148.92418"
       sodipodi:rx="267.27972"
       sodipodi:ry="100.32787"
       d="M 1136.5267,148.92418 A 267.27972,100.32787 0 0 1 869.24695,249.25205 267.27972,100.32787 0 0 1 601.96722,148.92418 267.27972,100.32787 0 0 1 869.24695,48.596306 267.27972,100.32787 0 0 1 1136.5267,148.92418 Z"
       transform="matrix(0.8447258,0,0,1.0004023,-6.8982568,334.33078)" />
    <text
       xml:space="preserve"
       style="font-size:40px;font-style:normal;font-weight:normal;line-height:125%;letter-spacing:0px;word-spacing:0px;fill:#000000;fill-opacity:1;stroke:none;font-family:Sans"
       x="790.08197"
       y="379.85175"
       id="text6997"
       sodipodi:linespacing="125%"><tspan
         sodipodi:role="line"
         id="tspan6999"
         x="790.08197"
         y="379.85175">Allocation</tspan></text>
  </g>
</svg>
